21

1
OC8GQdwn-55915806
1
1
1
1
1

4
6n3hhm09-06129869
N48jR61a-70645746
Zm3B36eT-90924519
MUMcxoNA-95842729
4 3 1 2
2 3 4 1
2 1 3 4

3
ELRUmi31-17067393
2JTzkDRj-60176278
b97jWojG-32306011
1 3 2
1 2 3
1 3 2
2 1 3
2 1 3
3 1 2
2 3 1
1 2 3
2 1 3

5
F5AluUSq-44194574
VcOWSm4m-01029886
2cTyKoAU-37357659
5HBlwQ1K-33095858
ouMmke5D-53951536
1 4 2 3 5
2 4 1 5 3
3 1 2 4 5
2 5 1 4 3
4 2 5 3 1
1 3 4 5 2
4 5 1 3 2
5 3 4 2 1

3
fLkBM1ph-52492430
e_04gtLq-34909121
hZ2gBuIt-93970539
1 3 2
2 1 3
3 2 1
2 3 1
3 2 1
3 2 1
3 2 1
2 1 3

9
j7nLCyAD-75385937
xpifN4A1-38289213
gHt8e5Ph-99404761
DbgNZlml-94564534
Oqd5dINr-62013558
B7GKAOVj-88656077
hmrYUELC-86147780
o1uOMWYN-58044151
02MpbBPj-76007074
5 1 4 2 7 8 9 3 6
2 1 3 9 8 7 4 5 6
7 1 2 8 5 3 9 4 6
1 2 3 4 5 6 7 8 9
3 7 5 9 1 4 6 2 8
7 2 9 3 4 8 5 6 1
7 5 8 1 9 6 2 4 3
7 9 3 4 5 2 8 6 1

8
7bt7jaQL-55890081
z7urJEii-44522706
g6rissVF-61901356
xmCjgF4r-08267779
_SkT0WtS-37556191
C6JM4JT0-25621668
cRJnn1Qs-52105077
IfApWflP-29864714
5 8 7 1 3 4 6 2
2 7 5 3 6 4 8 1
1 6 4 5 7 3 8 2
3 2 6 7 4 8 1 5
3 7 4 5 2 8 6 1
6 4 3 1 5 8 7 2
2 5 8 4 3 7 6 1
8 4 3 6 5 2 7 1
2 7 3 8 6 4 1 5

1
pf4KW2MR-91270981
1
1
1
1
1
1
1

7
Np_FfQGt-43359436
Xj1YLNKC-95827295
ssybckCu-42249990
yCDquDQj-55770078
jdzzEiZf-02389925
Wwii5cPR-30650838
T2xQE5z5-50277794
7 5 4 1 6 3 2

7
EIzbEAKD-09893679
57uJ51Z7-40301103
Gq_Vx4AN-66363588
rK6xXUg2-68853771
6sE8CD3o-91417951
HAWINfFL-85245820
kL118RtP-28283654
6 2 1 4 7 5 3

4
KKpHXKQa-95505241
bYrtv1tt-75578303
luzPEj1t-15566949
fGooY3zh-57333311
3 2 4 1
3 4 2 1
3 4 2 1
4 1 2 3

4
nyVhPgcK-80356554
BwCWmOk_-65098266
8WnPRNiX-47801678
D2MCuh3y-68349723
3 2 1 4
1 2 3 4
3 2 1 4
4 2 3 1

3
M1l3I2__-41770124
_04I_CMz-47964084
boI8cunc-01972905
2 1 3

2
sLB8bfPU-29419740
NiW5T74B-69884878
2 1
1 2
1 2
2 1
1 2
2 1
2 1
2 1
1 2
1 2

6
oFPqVbnK-66273980
bIdqzsCd-98066017
BYxtfiD4-76723794
UbwYXu6X-14296000
m9uujX2i-43986508
pHhmaJAX-27004424
2 1 3 6 5 4
5 1 6 2 4 3
3 5 4 6 2 1
3 6 4 5 1 2
4 5 3 2 6 1
3 4 5 1 2 6
3 4 1 2 5 6
1 6 4 5 3 2

7
Up2hL61t-10789142
ADRlkRbB-04236615
0zUiY4d0-39147479
ySNCK8Pj-81723711
D14u3jCs-11278892
BGTN5KbJ-95381720
LGp7nVKz-51715087
2 7 4 3 1 6 5
3 5 1 4 2 7 6
7 3 2 1 6 5 4
5 2 6 4 3 1 7
7 2 6 5 1 4 3

5
iXxWAheX-21213237
lUShy597-85158949
f3uuJYSd-25587934
s4L5CLt5-03562705
f48NlwxN-55856679
5 3 4 2 1
4 3 1 5 2
3 5 4 2 1
3 2 4 5 1
3 5 1 2 4
4 2 3 1 5
5 4 3 1 2
4 2 3 5 1
3 1 4 5 2
4 1 5 3 2

3
OAGHshKt-73868005
c7KwAt1c-85786839
4m7U2zwC-50570191
3 2 1
1 2 3
1 2 3

5
FKzxFkGC-29100591
D0Xw7mvk-67524526
lLrB1Ehh-21130512
0Di6sC6Y-50961387
1M2PrZC9-96158656
5 3 4 1 2
5 1 2 4 3
2 5 1 3 4
1 2 3 4 5
5 3 1 2 4
3 2 1 4 5
5 2 3 1 4
2 3 1 4 5

5
0Rz2L7Fd-25162785
eiBF9fkq-39300575
W7AlTSZv-70240904
VOY2CAG7-06742308
P6sAor54-66497402
1 3 5 4 2
3 1 5 2 4
3 5 1 2 4

6
1xXCdZcf-43177927
yCxHSxro-14140667
uIyi54tO-89412344
28MBpCj1-48366410
fgH80yt0-08860839
arovXp6Y-70786323
4 5 1 2 3 6
2 4 3 5 6 1
3 5 1 4 6 2
2 3 5 1 4 6
1 2 3 6 5 4
